﻿lat,lon,state
28.12768,-117.981766,AK
32.3792,-86.3077,AL
33.60503,-112.070892,AR
34.713561,-92.355844,AZ
38.57873,-121.466786,CA
39.740959,-104.985798,CO
41.765566,-72.690228,CT
38.912097,-77.014683,DC
39.166217,-75.526182,DE
30.449457,-84.262894,FL
33.769805,-84.414581,GA
24.200987,-104.313994,HI
43.945777,-115.884627,IA
39.856714,-89.696334,ID
39.785871,-86.143415,IL
41.574349,-93.61043,IN
39.041966,-95.698227,KS
38.195518,-84.865206,KY
30.46297,-91.14273,LA
44.33272,-69.731956,MA
38.966044,-76.495195,MD
42.355492,-71.048611,ME
42.709295,-84.549973,MI
44.95304,-93.09013,MN
32.30835,-90.229913,MO
38.563747,-92.184208,MS
46.59808,-112.020152,MT
40.802759,-96.663162,NC
39.164632,-119.724999,ND
43.231657,-71.559509,NE
40.220327,-74.752724,NH
35.681375,-105.945888,NJ
42.65756,-73.789994,NM
35.795543,-78.64439,NV
46.811025,-100.783777,NY
39.98072,-82.985586,OH
35.393761,-97.602513,OK
44.917382,-123.031352,OR
40.264214,-76.881183,PA
41.826746,-71.419577,RI
34.044165,-80.846323,SC
44.375313,-100.321494,SD
36.236907,-86.834683,TN
30.222346,-97.836521,TX
40.773201,-111.933984,UT
44.263716,-72.57541,VA
37.519231,-77.473927,VT
47.047456,-122.896902,WA
38.347262,-81.630631,WI
43.081309,-89.395609,WV
41.138437,-104.812406,WY
