gender,state,name,n,lat,lon
Female,AK,Elizabeth,2831,28.12768,-117.981766
Female,AL,Betty,33120,32.3792,-86.3077
Female,AR,Linda,20335,33.60503,-112.070892
Female,AZ,Jessica,16685,34.713561,-92.355844
Female,CA,Jessica,135096,38.57873,-121.466786
Female,CO,Elizabeth,16330,39.740959,-104.985798
Female,CT,Patricia,23123,41.765566,-72.690228
Female,DC,Barbara,11371,38.912097,-77.014683
Female,DE,Jennifer,4073,39.166217,-75.526182
Female,FL,Jessica,46893,30.449457,-84.262894
Female,GA,Betty,40762,33.769805,-84.414581
Female,HI,Elizabeth,4449,24.200987,-104.313994
Female,IA,Patricia,22579,43.945777,-115.884627
Female,ID,Linda,5836,39.856714,-89.696334
Female,IL,Barbara,82846,39.785871,-86.143415
Female,IN,Patricia,38625,41.574349,-93.61043
Female,KS,Betty,16925,39.041966,-95.698227
Female,KY,Linda,30774,38.195518,-84.865206
Female,LA,Patricia,24455,30.46297,-91.14273
Female,MA,Elizabeth,55451,44.33272,-69.731956
Female,MD,Elizabeth,26361,38.966044,-76.495195
Female,ME,Patricia,8688,42.355492,-71.048611
Female,MI,Barbara,66648,42.709295,-84.549973
Female,MN,Jennifer,30016,44.95304,-93.09013
Female,MO,Patricia,37984,32.30835,-90.229913
Female,MS,Dorothy,25791,38.563747,-92.184208
Female,MT,Linda,5316,46.59808,-112.020152
Female,NC,Betty,43956,40.802759,-96.663162
Female,ND,Margaret,5147,39.164632,-119.724999
Female,NE,Linda,12219,43.231657,-71.559509
Female,NH,Elizabeth,6566,40.220327,-74.752724
Female,NJ,Barbara,53623,35.681375,-105.945888
Female,NM,Elizabeth,7663,42.65756,-73.789994
Female,NV,Ashley,4989,35.795543,-78.64439
Female,NY,Barbara,147105,46.811025,-100.783777
Female,OH,Linda,79246,39.98072,-82.985586
Female,OK,Linda,22858,35.393761,-97.602513
Female,OR,Linda,14126,44.917382,-123.031352
Female,PA,Patricia,113594,40.264214,-76.881183
Female,RI,Patricia,8612,41.826746,-71.419577
Female,SC,Betty,24943,34.044165,-80.846323
Female,SD,Patricia,5534,44.375313,-100.321494
Female,TN,Betty,36306,36.236907,-86.834683
Female,TX,Jennifer,99115,30.222346,-97.836521
Female,UT,Jessica,10734,40.773201,-111.933984
Female,VA,Linda,32457,44.263716,-72.57541
Female,VT,Patricia,3895,37.519231,-77.473927
Female,WA,Linda,22734,47.047456,-122.896902
Female,WI,Susan,37061,38.347262,-81.630631
Female,WV,Linda,20697,43.081309,-89.395609
Female,WY,Linda,2627,41.138437,-104.812406
Male,AK,James,6826,28.12768,-117.981766
Male,AL,John,96701,32.3792,-86.3077
Male,AR,William,48722,33.60503,-112.070892
Male,AZ,Robert,34574,34.713561,-92.355844
Male,CA,Robert,349717,38.57873,-121.466786
Male,CO,John,46334,39.740959,-104.985798
Male,CT,Michael,68910,41.765566,-72.690228
Male,DC,Robert,29538,38.912097,-77.014683
Male,DE,James,13408,39.166217,-75.526182
Male,FL,John,115346,30.449457,-84.262894
Male,GA,John,123007,33.769805,-84.414581
Male,HI,John,12202,24.200987,-104.313994
Male,IA,James,60317,43.945777,-115.884627
Male,ID,James,14529,39.856714,-89.696334
Male,IL,Michael,254218,39.785871,-86.143415
Male,IN,John,113497,41.574349,-93.61043
Male,KS,James,46673,39.041966,-95.698227
Male,KY,John,82475,38.195518,-84.865206
Male,LA,Michael,65318,30.46297,-91.14273
Male,MA,Michael,144047,44.33272,-69.731956
Male,MD,William,80622,38.966044,-76.495195
Male,ME,Michael,20915,42.355492,-71.048611
Male,MI,James,187219,42.709295,-84.549973
Male,MN,Robert,81705,44.95304,-93.09013
Male,MO,Robert,111209,32.30835,-90.229913
Male,MS,Robert,67437,38.563747,-92.184208
Male,MT,James,16729,46.59808,-112.020152
Male,NC,John,123489,40.802759,-96.663162
Male,ND,John,15009,39.164632,-119.724999
Male,NE,James,32400,43.231657,-71.559509
Male,NH,John,15975,40.220327,-74.752724
Male,NJ,Michael,167542,35.681375,-105.945888
Male,NM,David,20167,42.65756,-73.789994
Male,NV,Robert,9416,35.795543,-78.64439
Male,NY,Michael,435320,46.811025,-100.783777
Male,OH,John,252118,39.98072,-82.985586
Male,OK,Robert,55329,35.393761,-97.602513
Male,OR,David,36907,44.917382,-123.031352
Male,PA,James,302157,40.264214,-76.881183
Male,RI,Michael,24934,41.826746,-71.419577
Male,SC,John,79487,34.044165,-80.846323
Male,SD,John,14411,44.375313,-100.321494
Male,TN,John,95468,36.236907,-86.834683
Male,TX,Michael,229394,30.222346,-97.836521
Male,UT,Robert,24870,40.773201,-111.933984
Male,VA,John,108559,44.263716,-72.57541
Male,VT,Michael,9066,37.519231,-77.473927
Male,WA,David,60591,47.047456,-122.896902
Male,WI,John,96352,38.347262,-81.630631
Male,WV,William,55807,43.081309,-89.395609
Male,WY,James,8089,41.138437,-104.812406
